{
    "resultCount": 8,
    "results": [
        {
            "itemName": "SEI Tennyson Electric Fireplace with Bookcases - Classic Mahogany",
            "itemPrice": 919.99,
            "image": "https://sep.yimg.com/ay/yhst-95622685483394/fredricksburg-electric-fireplace-w-bookcases-mahogany-54.gif",
            "description": "An electric fireplace is a great way to provide supplemental heating, especially when it is surrounded by a lovely cabinet that makes a decorative statement. The fireplace uses LED lights to produce a realistic flickering flame effect and the heater will produce up to 5000 BTU of comforting warmth. Both brightness and heat level are controlled with the included remote, and a thermostat enables precise comfort adjustment. A thermal overload protector is included for safety. This unit plugs into a standard wall outlet for flexibility in installation. Since no emissions are produced, no venting is required. The lovely cabinet has a classic mahogany finish and comes with six fixed shelves to store books, media, or decorative items. The mantel will support up to 85 pounds. Overall dimensions are 70.25\" W x 14\" D x 42.25\" T.",
            "productPageURL": "https://www.efireplacestore.com/sei-fe8547.html",
            "itemType": 1,
            "modelURL": "http://dunno",
            "localModelName": "awning"
        },
        {
            "itemName": "Empire Breckenridge Premium Vent-Free Louvered Gas Firebox with Traditional Brick Ceramic Liner - 32\" - VFP-32-FB0L",
            "itemPrice": 789.99,
            "image": "https://sep.yimg.com/ay/yhst-95622685483394/breckenridge-premium-vent-free-louvered-gas-firebox-with-traditional-brick-ceramic-liner-32-vfp-32-fb0l-48.gif",
            "description": "Creating that perfect hearth that is as charming as it is stylish is not an easy task. That's why it's so necessary to begin with a high-quality insert like this Breckenridge design that is light and easy to install. This installation requires no venting and includes matte black hood, matte black slat louvers, and traditional brick ceramic fiber liner. It can be used with most 18\" vent-free log sets and come with a 5-year limited warranty.",
            "productPageURL": "https://www.efireplacestore.com/cui-vfp32fb2dl.html",
            "itemType": 1,
            "modelURL": "http://dunno",
            "localModelName": "firegear2"
        },
        {
            "itemName": "Monessen Montana Radiant Outdoor Wood Burning Fireplace - 42 Inch",
            "itemPrice": 2929.99,
            "image": "https://sep.yimg.com/ay/yhst-95622685483394/monessen-montana-radiant-wood-burning-fireplace-42-inch-41.gif",
            "description": "There are a lot of features of this model. For one, it comes with an all stainless steel construction. It is also equipped with a realistic brick refractory liner which is a testament to convenience and quality. At the same time, it is also shipped with a wood burning unit. It is also capable of easily transferring to a gas unit with a very convenient installation of gas logs. It is also equipped with optional stainless steel together with bi-fold glass doors. This product has been made with in the USA, which is a guarantee to overall quality for your home.",
            "productPageURL": "https://www.efireplacestore.com/mon-montana-42.html",
            "itemType": 2,
            "modelURL": "http://dunno",
            "localModelName": "fireplace"
        },
        {
            "itemName": "Empire Vail Premium Vent-Free Propane Fireplace - 32\" - VFP-32-BP20LLP",
            "itemPrice": 1399.99,
            "image": "https://sep.yimg.com/ay/yhst-95622685483394/vail-premium-vent-free-propane-fireplace-32-vfp-32-bp20llp-59.gif",
            "description": "This vent free fireplace has a charred oak log set and ceramic pellets in the burner that tumble to create natural-looking flames. The fireplace produces up to 32,000 BTU with 99.9%, and you can control the heat production with a built-in modulating hydraulic thermostat. The unit comes with a matte black hood and slat louvers, a reliable standing/Piezo ignitor, and an oxygen depletion safety sensor. The fireplace is zero clearance certified and requires absolutely no venting. The hem-bent seams eliminate screws and fasteners that may come loose. The required framing dimensions are 36 1/4\" H x 34 1/2\" W x 17 7/8\" D and the unit's actual dimensions are 32 3/4\" H x 31\" W x 17 3/8\" D. There is a five-year limited warranty.",
            "productPageURL": "https://www.efireplacestore.com/cui-vfp32fp20lp.html",
            "itemType": 1,
            "modelURL": "http://dunno",
            "localModelName": "firegear2"
        },
        {
            "itemName": "Napoleon Ascent X Direct Vent Clean Face Fireplace - Millivolt",
            "itemPrice": 2799.99,
            "image": "https://sep.yimg.com/ay/yhst-95622685483394/napoleon-ascent-x-direct-vent-clean-face-fireplace-millivolt-32.gif",
            "description": "",
            "productPageURL": "https://www.efireplacestore.com/npl-gx36ntr-1.html",
            "itemType": 1,
            "modelURL": "http://dunno",
            "localModelName": "firegear2"
        },
        {
            "itemName": "Empire Tahoe Luxury Clean Face Direct-Vent Multi-Function IPI Traditional Fireplace - 36 Inch",
            "itemPrice": 3699.99,
            "image": "https://sep.yimg.com/ay/yhst-95622685483394/empire-dvcx36fp91n-tahoe-luxury-direct-vent-fireplace-54.gif",
            "description": "Experience luxury at its finest with the Empire Tahoe Luxury Clean Face Direct-Vent Multi-Function IPI Traditional Fireplace. This model includes a multifunction remote control, light kit, and automatic blower and provides up to 37,000 BTUs of heat. Its traditional appearance provides a timeless look for any room and includes features to create an experience similar to that of a wood-burning fire-without the mess. A 9-piece log set sits atop a burner with a bed of realistic looking coals. Users will enjoy the classic looking rustic brick liner and the light kit adds to the impression and can be used even when the fireplace is off. This fireplace includes everything you need for a luxury fireplace experience!",
            "productPageURL": "https://www.efireplacestore.com/cui-dvcx36fp91n.html",
            "itemType": 2,
            "modelURL": "http://dunno",
            "localModelName": "fireplace"
        },
        {
            "itemName": "Superior DRT3033 Pro Series 33\" Top Vent Fireplace with Aged Oak Logs - Millivolt",
            "itemPrice": 1459.99,
            "image": "https://sep.yimg.com/ay/yhst-95622685483394/superior-drt3033-pro-series-33-top-vent-fireplace-with-aged-oak-logs-millivolt-53.gif",
            "description": "You're sure to be warm with the Superior DRT3000 Pro Series Top Vent Fireplace with aged Oak Logs. This fireplace comes with a natural gas or propane option as well as liner kit options of vintage red brick, buff brick, old town red brick herringbone, or black reflective porcelain. Some features of this fireplace include controls that offer energy saving pilotless ignition and a battery backup, making it dependable in power outages. In the world of fireplaces, this is definitely one worthy of purchasing. This fireplace is not only beautiful, but also efficient when it comes to heating any room.",
            "productPageURL": "https://www.efireplacestore.com/sup-drt3033tmn.html",
            "itemType": 2,
            "modelURL": "http://dunno",
            "localModelName": "fireplace"
        },
        {
            "itemName": "Fire Sense Black Wall-Mounted Electric Fireplace with Heater",
            "itemPrice": 269.99,
            "image": "https://sep.yimg.com/ay/yhst-95622685483394/fire-sense-black-wall-mounted-electric-fireplace-with-heater-86.gif",
            "description": "If you feel that electric fireplace units are not able to create images that look realistic, then the time has come for you to be pleasantly surprised. Fire Sense has developed in the Black Wall-Mounted Electric Fireplace with Heater an item that not only is capable of providing your home with a significant amount of heat but also is capable of operating off a remote control, so that no matter where you are, you have the ability to create just the setting that you want. Includes log and rocks sets for plenty of decorative options.",
            "productPageURL": "https://www.efireplacestore.com/frs-60757.html",
            "itemType": 2,
            "modelURL": "http://dunno",
            "localModelName": "fireplace"
        }
    ]
}
